{
  "disabled": false,
  "scriptFile": "update-expense.js",
  "bindings": [
    {
      "route": "update-expense",
      "authLevel": "function",
      "type": "httpTrigger",
      "direction": "in",
      "name": "req",
      "methods": [
        "put"
      ]
    },
    {
      "type": "http",
      "direction": "out",
      "name": "res"
    }
  ]
}
